﻿poolNumber,sender,notRoutedReason,sentDateTime,requestedDeliveryReportMaskText,deliveryReportReceivedDateTime,isUnicode,messageUUID
1,Damir,NumberDoesntExist,2019-08-13T08:01:48.1535075Z,Submitted,2019-08-13T08:01:48.1535075Z,FALSE,4889e632-a314-45e2-89fd-35b07b4f9ff2
1,Damir,NumberDoesntExist,2019-08-13T08:01:46.3254032Z,Submitted,2019-08-13T08:01:46.3254032Z,FALSE,7f48626f-7dfe-4772-99e6-3a4c1df15e0e
1,Damir,NoPrefixAvailable,2019-08-13T08:01:44.6687063Z,Submitted,2019-08-13T08:01:44.6687063Z,FALSE,9d435163-9b6e-4a2e-b2c5-078398e071ad
1,Damir,NoPrefixAvailable,2019-08-13T08:01:44.595098Z,Submitted,2019-08-13T08:01:44.595098Z,FALSE,f2b2b7ed-3da9-40f4-8038-5cc4858aae44
1,Damir,NumberDoesntExist,2019-08-13T08:01:44.2799937Z,Submitted,2019-08-13T08:01:44.2799937Z,FALSE,d1066e74-c472-4cb3-add4-2c7524387b39
0,+381600171972,,2019-08-13T08:01:43.7313793Z,Submitted,2019-08-13T08:01:43.7313793Z,FALSE,ea4bad80-dc03-4e2e-8235-9b8eddd905e1
1,Damir,NumberDoesntExist,2019-08-13T08:01:43.574945Z,Submitted,2019-08-13T08:01:43.574945Z,FALSE,cf4e5429-c100-4fee-af31-d236627fca20
1,Damir,NumberDoesntExist,2019-08-13T08:01:42.199981Z,Submitted,2019-08-13T08:01:42.199981Z,FALSE,5706a93b-de10-48c9-975e-ed37068030a1
1,Damir,NoPrefixAvailable,2019-08-13T08:01:41.7243662Z,Submitted,2019-08-13T08:01:41.7243662Z,FALSE,95aa4874-8f57-4e55-ab1b-9f240308dad2
1,Damir,NoPrefixAvailable,2019-08-13T08:01:41.6931143Z,Submitted,2019-08-13T08:01:41.6931143Z,FALSE,3c249a2b-3078-4a04-a4a7-9a4144f58aed
1,Damir,NumberDoesntExist,2019-08-13T08:01:41.1634309Z,Submitted,2019-08-13T08:01:41.1634309Z,FALSE,cfdacd16-9adc-46da-9557-80e679e46c1b
1,Damir,NumberDoesntExist,2019-08-13T08:01:40.8493435Z,Submitted,2019-08-13T08:01:40.8493435Z,FALSE,ecfd5629-03c9-4c4a-8d84-601e58bdafc0
1,Damir,NumberDoesntExist,2019-08-13T08:01:40.787497Z,Submitted,2019-08-13T08:01:40.787497Z,TRUE,6e1c026d-b486-4267-badf-c1bc736eaa71
1,Damir,NumberDoesntExist,2019-08-13T08:01:40.0481257Z,Submitted,2019-08-13T08:01:40.0481257Z,FALSE,de914045-7eae-468a-981f-a6037a058caf
1,Damir,NumberDoesntExist,2019-08-13T08:01:38.3898189Z,Submitted,2019-08-13T08:01:38.3898189Z,FALSE,99dbd63b-2839-4cf0-8501-9ab843ec64cb
1,Damir,NoPrefixAvailable,2019-08-13T08:01:37.1110919Z,Submitted,2019-08-13T08:01:37.1110919Z,FALSE,0651793e-5730-4112-b034-6e9bcce73055
1,Damir,NumberDoesntExist,2019-08-13T08:01:37.1085273Z,Submitted,2019-08-13T08:01:37.1085273Z,FALSE,8186f526-dc55-490f-b90b-11db8cf7ef31
1,Damir,NumberDoesntExist,2019-08-13T08:01:36.2829279Z,Submitted,2019-08-13T08:01:36.2829279Z,FALSE,81a83144-7d9e-4085-90fd-efacf8284c0c
1,Damir,NumberDoesntExist,2019-08-13T08:01:36.1892004Z,Submitted,2019-08-13T08:01:36.1892004Z,FALSE,ffcc97a4-f901-46ff-983f-3d9de042ec04
1,Damir,NumberDoesntExist,2019-08-13T08:01:35.8766963Z,Submitted,2019-08-13T08:01:35.8766963Z,FALSE,354ff301-42a8-410f-a047-b36a7e3a473a
1,Damir,NumberDoesntExist,2019-08-13T08:01:35.7797177Z,Submitted,2019-08-13T08:01:35.7797177Z,FALSE,624d845e-958e-4ba1-9fa7-5834d1fb5a8f
1,Damir,NoPrefixAvailable,2019-08-13T08:01:35.701588Z,Submitted,2019-08-13T08:01:35.701588Z,FALSE,ccfbba13-763e-4a54-9496-a676a4c7b0a6
1,Damir,NumberDoesntExist,2019-08-13T08:01:35.6234615Z,Submitted,2019-08-13T08:01:35.6234615Z,FALSE,c732848c-7284-41ab-9e5a-4f0814fe352a
1,Damir,NoPrefixAvailable,2019-08-13T08:01:34.8405005Z,Failed,2019-08-13T08:01:34.8405005Z,FALSE,6d8c0475-deda-4783-8e52-f6aab0038f6a
1,Damir,NumberDoesntExist,2019-08-13T08:01:34.7154829Z,Submitted,2019-08-13T08:01:34.7154829Z,FALSE,2d204a1a-a306-47fb-8231-7e623e084d76
1,Damir,NumberDoesntExist,2019-08-13T08:01:34.7048258Z,Submitted,2019-08-13T08:01:34.7048258Z,FALSE,6a3d5f93-f0bf-4649-a3a0-130e3c17a602
1,Damir,NumberDoesntExist,2019-08-13T08:01:33.9029635Z,Submitted,2019-08-13T08:01:33.9029635Z,FALSE,e21ccf30-ff7f-40eb-91d9-af9485573914
1,Damir,NumberDoesntExist,2019-08-13T08:01:31.7359215Z,Submitted,2019-08-13T08:01:31.7359215Z,FALSE,7fb06bc2-4fa5-4248-b37d-2d57498cc553
1,Damir,NoPrefixAvailable,2019-08-13T08:01:29.0101363Z,Submitted,2019-08-13T08:01:29.0101363Z,FALSE,f5ef55e4-9011-4d37-9baa-a9ab64783cf2
1,Damir,NumberDoesntExist,2019-08-13T08:01:28.1771783Z,Submitted,2019-08-13T08:01:28.1771783Z,FALSE,bbd6202a-614a-4dd7-8ac0-5970b4ee71a5
1,Damir,NumberDoesntExist,2019-08-13T08:01:27.895888Z,Submitted,2019-08-13T08:01:27.895888Z,FALSE,6bdeb293-0362-463d-a5fa-4fac364a61e8
1,Damir,NumberDoesntExist,2019-08-13T08:01:27.3874259Z,Submitted,2019-08-13T08:01:27.3874259Z,FALSE,81395848-62f8-402f-9b90-fd918d3fee83
0,381600171972,,2019-08-13T08:01:26.7660668Z,InProgress,2019-08-13T08:01:26.7660668Z,FALSE,f90bdb6b-8ff8-47e8-8664-02b814003965
1,Damir,NumberDoesntExist,2019-08-13T08:01:25.7587789Z,Submitted,2019-08-13T08:01:25.7587789Z,FALSE,d82e2d22-e924-4344-9a13-6d00d9a47892
1,Damir,NumberDoesntExist,2019-08-13T08:01:24.0712291Z,Submitted,2019-08-13T08:01:24.0712291Z,TRUE,2c15bb8b-d333-4cfe-b917-7c39ef5b5322
1,Damir,NumberDoesntExist,2019-08-13T08:01:23.3207505Z,Submitted,2019-08-13T08:01:23.3207505Z,FALSE,5a66e8d8-e1b6-46df-8184-5a39e095076a
1,Damir,NumberDoesntExist,2019-08-13T08:01:20.8841214Z,Submitted,2019-08-13T08:01:20.8841214Z,FALSE,6b711c59-85c1-4eef-9050-05a237bcc3b6
1,Damir,NumberDoesntExist,2019-08-13T08:01:20.1901713Z,Submitted,2019-08-13T08:01:20.1901713Z,FALSE,447bd5d2-af33-4ea9-bbb9-072aadaed08f
1,Damir,NumberDoesntExist,2019-08-13T08:01:19.034285Z,Submitted,2019-08-13T08:01:19.034285Z,FALSE,84b481b5-3c44-416a-99d9-ede15e43d8de
0,Damir,,2019-08-13T08:01:18.7368135Z,Submitted,2019-08-13T08:01:18.7368135Z,FALSE,13eac054-6e5e-46e1-aea1-b592e6cc1cc2
1,Damir,NoPrefixAvailable,2019-08-13T08:01:17.5641815Z,Submitted,2019-08-13T08:01:17.5641815Z,FALSE,5c24f92d-46a0-4ddd-a413-88de0d97ea0e
1,Damir,NumberDoesntExist,2019-08-13T08:01:17.2985243Z,Submitted,2019-08-13T08:01:17.2985243Z,FALSE,c97d7aee-d15c-466e-8a28-c171626946e7
1,Damir,NumberDoesntExist,2019-08-13T08:01:16.7828833Z,Submitted,2019-08-13T08:01:16.7828833Z,FALSE,444c3e55-875f-4b21-9c29-bb1a89f21eb2
1,Damir,NoPrefixAvailable,2019-08-13T08:01:14.3242054Z,Submitted,2019-08-13T08:01:14.3242054Z,TRUE,9bed3fa2-be96-4eb8-8ff1-e1fe535bb513
0,Damir,,2019-08-13T08:01:13.7616719Z,Submitted,2019-08-13T08:01:13.7616719Z,FALSE,e10053b0-8fa4-4f88-a995-d807f04e52a1
1,Damir,NoApplicableRouteFound,2019-08-13T08:01:13.5273178Z,Submitted,2019-08-13T08:01:13.5273178Z,FALSE,59a5198e-7722-4447-b33a-51cb0df71fa3
1,Damir,NoPrefixAvailable,2019-08-13T08:01:12.6835438Z,Submitted,2019-08-13T08:01:12.6835438Z,FALSE,493be5a8-1bf9-480f-b51c-cb56882001a5
1,Damir,NumberDoesntExist,2019-08-13T08:01:12.5564846Z,Submitted,2019-08-13T08:01:12.5564846Z,FALSE,7f640613-be09-4e67-b346-7b9fed1312d5
1,Damir,NumberDoesntExist,2019-08-13T08:01:12.5564846Z,Submitted,2019-08-13T08:01:12.5564846Z,FALSE,f1706214-9c32-4b5a-89c9-16840bcd76e9
0,Damir,,2019-08-13T08:01:11.7596155Z,Submitted,2019-08-13T08:01:11.7596155Z,FALSE,4d400f46-b85c-4781-849b-c39d80d12f7c
